<?xml version="1.0" encoding="UTF-8" standalone="no"?>
<!-- Created with Inkscape (http://www.inkscape.org/) -->

<svg
   xmlns:dc="http://purl.org/dc/elements/1.1/"
   xmlns:cc="http://creativecommons.org/ns#"
   xmlns:rdf="http://www.w3.org/1999/02/22-rdf-syntax-ns#"
   xmlns:svg="http://www.w3.org/2000/svg"
   xmlns="http://www.w3.org/2000/svg"
   xmlns:sodipodi="http://sodipodi.sourceforge.net/DTD/sodipodi-0.dtd"
   xmlns:inkscape="http://www.inkscape.org/namespaces/inkscape"
   width="480mm"
   height="360.14255mm"
   viewBox="0 0 480 360.14255"
   version="1.1"
   id="svg5084"
   inkscape:version="0.92.1 r15371"
   sodipodi:docname="background-1.svg">
  <defs
     id="defs5078" />
  <sodipodi:namedview
     id="base"
     pagecolor="#ffffff"
     bordercolor="#666666"
     borderopacity="1.0"
     inkscape:pageopacity="0.0"
     inkscape:pageshadow="2"
     inkscape:zoom="0.49497475"
     inkscape:cx="769.33343"
     inkscape:cy="429.56657"
     inkscape:document-units="mm"
     inkscape:current-layer="layer1"
     showgrid="false"
     inkscape:object-nodes="false"
     fit-margin-top="0"
     fit-margin-left="0"
     fit-margin-right="0"
     fit-margin-bottom="0" />
  <metadata
     id="metadata5081">
    <rdf:RDF>
      <cc:Work
         rdf:about="">
        <dc:format>image/svg+xml</dc:format>
        <dc:type
           rdf:resource="http://purl.org/dc/dcmitype/StillImage" />
        <dc:title></dc:title>
      </cc:Work>
    </rdf:RDF>
  </metadata>
  <g
     inkscape:label="Layer 1"
     inkscape:groupmode="layer"
     id="layer1"
     transform="translate(86.606866,158.72011)">
    <g
       transform="matrix(1.7660663,0,0,1.7427858,-1524.3133,-725.81644)"
       id="g486">
      <g
         transform="scale(0.26458333)"
         id="use484">
        <path
           style="fill:#d5edf7;stroke:none;stroke-width:0.87472171"
           inkscape:connector-curvature="0"
           id="path5674"
           d="M 4104.05,1229.8449 H 3076.8104 v 781.0304 H 4104.05 Z" />
      </g>
    </g>
    <g
       transform="matrix(1.7660663,0,0,1.7660663,-1524.3133,-738.20267)"
       id="g490">
      <g
         transform="scale(0.26458333)"
         id="use488">
        <path
           style="fill:#e6f4fa;stroke:none"
           inkscape:connector-curvature="0"
           id="path5678"
           d="m 4036,1479.3 q -7,0 -13.1,2.15 -8.2,2.8 -14.85,9.5 -9.3,9.25 -11.15,21.65 -10.65,1.3 -20.15,5.1 -2.35,-6.15 -7.7,-11.05 -9.5,-8.9 -23.1,-8.9 -13.55,0 -23.15,8.9 -1.4,1.35 -2.65,2.8 -23.75,-20.7 -56.8,-20.7 -6.7,0 -13.05,0.9 -0.5,-0.5 -1,-0.95 -9.5,-8.95 -23.1,-8.95 -7.7,0 -14.2,3 h -0.05 q 0,-0.25 0.05,-0.5 0.1,-1.05 0.1,-2.05 0,-0.45 0,-0.75 0,-0.5 0,-1.05 -0.4,-11.95 -9.6,-20.5 -9.55,-8.9 -23.1,-8.9 -3,0 -5.7,0.45 -2.25,-7.1 -8.3,-12.7 -9.55,-8.9 -23.1,-8.9 -13.55,0 -23.1,8.9 -6.55,6.1 -8.65,13.95 -21.2,4.05 -37.85,18.1 -8.5,-6.2 -19.85,-6.2 -13.55,0 -23.15,8.9 -6.95,6.5 -8.85,15.05 -8.45,-1.65 -17.6,-1.65 -2.9,0 -5.8,0.2 -2.1,-7.7 -8.55,-13.75 -9.5,-8.9 -23.1,-8.9 -13.55,0 -23.15,8.9 -0.35,0.4 -0.6,0.7 -5.3,-8.3 -13.1,-15.6 -24.45,-22.75 -59,-22.8 -2.35,-5.35 -7.05,-9.7 -9.55,-8.9 -23.15,-8.9 -4.6,0 -8.6,1 -0.9,-11 -9.55,-19 -9.55,-8.9 -23.1,-8.9 -9.7,0 -17.2,4.5 -16.7,-7.7 -36.8,-7.7 -34.7,0 -59.15,22.8 -11.35,10.55 -17.4,23.1 -3.4,-0.65 -7.15,-0.65 -13.45,0 -23.1,8.85 -9,8.4 -9.45,20.25 -0.05,0.6 -0.05,1.3 0,1.3 0.1,2.6 0.45,5.4 2.8,10.2 -1.65,3.45 -2.4,7.3 -12.55,5.55 -23.2,15.5 -4.5,4.2 -8.2,8.8 -7.65,-4.55 -17.4,-4.55 -13.55,0 -23.05,8.9 -7.15,6.6 -8.95,15.25 -0.8,0 -1.6,0 -19.5,0 -35.75,7.3 -6.9,-3.45 -15.2,-3.45 -8.45,0 -15.3,3.5 v 291.85 h 1024 v -288.6 q -0.4,-15.75 -11.6,-26.95 -10,-10 -23.5,-11.4 -2.15,-3.1 -4.95,-5.9 -11.65,-11.65 -28,-11.65 z" />
      </g>
    </g>
    <g
       transform="matrix(1.7660663,0,0,1.7660663,-1524.3133,-738.20267)"
       id="g494">
      <g
         transform="scale(0.26458333)"
         id="use492">
        <path
           style="fill:#d5edf7;stroke:none"
           inkscape:connector-curvature="0"
           id="path5682"
           d="m 3949.6,1750.5 -15.8,1.65 -11.4,109.2 171.75,-18.05 -41.8,-33.9 -13.55,1.45 -41.25,-125.9 -36.7,3.85 -11.25,61.7 M 3730,1538.3 h -28.45 l -13.6,62.45 h -13.05 l -15.35,85.8 h -17 l -7.15,38.25 -25.85,-78.85 -36.7,3.85 -11.25,61.7 -15.8,1.65 -11.4,109.2 84.3,-8.85 -0.05,0.3 h 170.25 l -22.55,-67.6 h -19.3 L 3730,1538.3 m -381.1,44.6 -35.05,-3.8 -51.9,143.5 -16.65,-1.8 -32.2,61.05 197.7,21.55 -38.4,-121.35 -11.3,-1.2 z" />
      </g>
    </g>
    <g
       transform="matrix(1.7660663,0,0,1.7660663,-1524.3133,-738.20267)"
       id="g498">
      <g
         transform="scale(0.26458333)"
         id="use496">
        <path
           style="fill:#648c44;stroke:none"
           inkscape:connector-curvature="0"
           id="path5686"
           d="m 4049.6,1777.2 -2.15,-21.35 19.8,1.05 -25.85,-84.5 -21.15,81.9 17.05,0.95 -2.35,21.95 h 14.65 m -109.35,-3.05 11.2,0.65 -1.55,14.4 h 9.6 l -1.4,-14.05 13,0.7 -16.95,-55.45 -13.9,53.75 m -810.2,-50 11.2,0.65 -1.55,14.4 h 9.6 l -1.4,-14.05 13,0.7 -16.95,-55.45 -13.9,53.75 m 237.9,59 13,0.7 -16.95,-55.45 -13.9,53.75 11.2,0.65 -1.55,14.4 h 9.6 l -1.4,-14.05 m -50.55,-5.95 -2.15,-21.35 19.8,1.05 -25.85,-84.5 -21.15,81.9 17.05,0.95 -2.35,21.95 z" />
      </g>
    </g>
    <g
       transform="matrix(1.7660663,0,0,1.7660663,-1524.3133,-738.20267)"
       id="g502">
      <g
         transform="scale(0.26458333)"
         id="use500">
        <path
           style="fill:#d26f49;stroke:none"
           inkscape:connector-curvature="0"
           id="path5690"
           d="m 3891.8,1631 q 33.15,-0.8 55,20 l -10.2,-75.6 -44.8,55.6 m -174.55,-9 q 26.3,-14.7 58.3,-5.7 l -29.65,-65 z" />
        <path
           style="fill:#a4afaf;stroke:none"
           inkscape:connector-curvature="0"
           id="path5692"
           d="m 3867.85,1759.9 -5.15,28.9 52.45,6.65 -2.8,-26.35 -44.5,-9.2 m -103.3,16.5 2.2,-29.8 -45.45,-1.6 -5.8,25.2 z" />
        <path
           style="fill:#5b6666;stroke:none"
           inkscape:connector-curvature="0"
           id="path5694"
           d="m 3790.95,1715.15 -4.6,64 53.6,6.8 13.05,-67.5 z" />
        <path
           style="fill:#7e8787;stroke:none"
           inkscape:connector-curvature="0"
           id="path5696"
           d="m 3769.1,1777 17.25,2.15 4.6,-64 62.05,3.3 -13.05,67.5 16.65,2.1 10.6,-84.25 -87.8,-8.45 -10.3,81.65 m -12.65,-105.65 -0.25,-19.15 q 0,-3.3 -2.4,-5.65 -2.3,-2.4 -5.65,-2.35 -3.25,0.05 -5.55,2.45 -2.3,2.35 -2.35,5.65 l 0.2,19.3 16,-0.25 m 87.1,-9.5 -28.45,-3.6 -9,17.6 -8.15,-0.85 -3.25,-19.35 -10.15,-1.25 -4.1,32.6 88.1,6.35 3.5,-27.9 -14.25,-1.8 -4.35,17 -8.05,-0.8 -1.85,-18 m 74.25,6.65 q -2.05,-3.55 -6,-4.55 -3.85,-1.05 -7.4,1.1 -3.55,2.1 -4.6,5.95 l -5.9,23 19.05,4.95 5.9,-23 q 1.05,-3.9 -1.05,-7.45 z" />
        <path
           style="fill:#95a1a1;stroke:none"
           inkscape:connector-curvature="0"
           id="path5698"
           d="m 3780.45,1687 -1.05,8.35 87.8,8.45 1.35,-10.45 -88.1,-6.35 m 5.2,-67.3 q -5.15,-2.05 -10.1,-3.4 -32,-9 -58.3,5.7 -4.5,2.5 -8.85,5.7 l 14.5,24.55 -1.6,92.75 45.45,1.6 6.95,-93.6 0.5,-6.15 14.1,-26.1 q -1.3,-0.55 -2.65,-1.05 m -29.45,32.5 0.25,19.15 -16,0.25 -0.2,-19.3 q 0.05,-3.3 2.35,-5.65 2.3,-2.4 5.55,-2.45 3.35,-0.05 5.65,2.35 2.4,2.35 2.4,5.65 m 129.35,-20.9 q -3.55,0.3 -7.2,0.8 l 7.15,28.8 -1.1,6.1 -16.55,92.9 44.5,9.2 21.5,-90.25 20.15,-20.15 q -3.4,-4.2 -7.2,-7.7 -21.85,-20.8 -55,-20 -3,0 -6.25,0.3 m 26.25,32.65 q 3.95,1 6,4.55 2.1,3.55 1.05,7.45 l -5.9,23 -19.05,-4.95 5.9,-23 q 1.05,-3.85 4.6,-5.95 3.55,-2.15 7.4,-1.1 z" />
        <path
           style="fill:#767e7e;stroke:none"
           inkscape:connector-curvature="0"
           id="path5700"
           d="m 3784.55,1654.4 -10.85,-1.4 -6.95,93.6 -2.2,29.8 4.55,0.6 10.3,-81.65 1.05,-8.35 4.1,-32.6 m 99.85,12.6 -12.35,-1.55 -3.5,27.9 -1.35,10.45 -10.6,84.25 6.1,0.75 5.15,-28.9 z" />
      </g>
    </g>
    <g
       transform="matrix(1.7660663,0,0,1.7660663,-1525.3224,-738.70726)"
       id="g554">
      <g
         transform="scale(0.26458333)"
         id="use552">
        <path
           style="fill:#b8d0a6;stroke:none"
           inkscape:connector-curvature="0"
           id="path5704"
           d="m 3799.55,1737.05 c -39.9,-11.9 -80.3167,-13.8167 -121.25,-5.75 -40.8667,8.0667 -79.9167,20.95 -117.15,38.65 -37.6333,17.7667 -77.4667,26.8 -119.5,27.1 -41.9667,0.3667 -82.5833,-6.5833 -121.85,-20.85 -38.0667,-13.9333 -76.8833,-25.5667 -116.45,-34.9 -41.3667,-9.6667 -82.45,-8.9 -123.25,2.3 v 267.2753 h 511.975 511.975 V 1743.6 c -23.2667,8.2667 -46.1167,17.5333 -68.55,27.8 -39.3,18 -79.4833,19.4167 -120.55,4.25 -38.0667,-14.1 -76.5333,-26.9667 -115.4,-38.6 z"
           sodipodi:nodetypes="cccccccccccccc" />
      </g>
    </g>
  </g>
</svg>
