<?xml version="1.0" encoding="UTF-8" standalone="no"?>
<!-- Created with Inkscape (http://www.inkscape.org/) -->

<svg
   xmlns:dc="http://purl.org/dc/elements/1.1/"
   xmlns:cc="http://creativecommons.org/ns#"
   xmlns:rdf="http://www.w3.org/1999/02/22-rdf-syntax-ns#"
   xmlns:svg="http://www.w3.org/2000/svg"
   xmlns="http://www.w3.org/2000/svg"
   xmlns:sodipodi="http://sodipodi.sourceforge.net/DTD/sodipodi-0.dtd"
   xmlns:inkscape="http://www.inkscape.org/namespaces/inkscape"
   width="49.325058mm"
   height="18.565151mm"
   viewBox="0 0 49.325058 18.565151"
   version="1.1"
   id="svg11431"
   inkscape:version="0.92.1 r15371"
   sodipodi:docname="fish_7.svg">
  <defs
     id="defs11425" />
  <sodipodi:namedview
     id="base"
     pagecolor="#ffffff"
     bordercolor="#666666"
     borderopacity="1.0"
     inkscape:pageopacity="0.0"
     inkscape:pageshadow="2"
     inkscape:zoom="0.49497475"
     inkscape:cx="70.948511"
     inkscape:cy="-35.926071"
     inkscape:document-units="mm"
     inkscape:current-layer="layer1"
     showgrid="false"
     fit-margin-top="0"
     fit-margin-left="0"
     fit-margin-right="0"
     fit-margin-bottom="0" />
  <metadata
     id="metadata11428">
    <rdf:RDF>
      <cc:Work
         rdf:about="">
        <dc:format>image/svg+xml</dc:format>
        <dc:type
           rdf:resource="http://purl.org/dc/dcmitype/StillImage" />
        <dc:title></dc:title>
      </cc:Work>
    </rdf:RDF>
  </metadata>
  <g
     inkscape:label="Layer 1"
     inkscape:groupmode="layer"
     id="layer1"
     transform="translate(164.51374,-160.71743)">
    <g
       id="g1572"
       transform="matrix(3.4395833,0,0,3.4395833,-1246.5708,-324.38814)">
      <g
         transform="scale(0.26458333)"
         id="use1570">
        <path
           style="fill:#acc0c1;stroke:none"
           inkscape:connector-curvature="0"
           id="path11988"
           d="m 1227.15,549.85 q -0.1,0.05 -0.2,0.1 h 0.2 v -0.1 M 1196.5,539 q -3,1.9 -3,4.55 0,2.6 3,4.5 3,1.9 7.4,1.9 h 6.25 10.4 q -0.3,-0.75 -0.25,-1.6 0,-0.9 0.45,-1.95 0.05,-0.1 0.2,-0.25 0.15,-0.1 0.35,-0.15 2.4,-0.85 4.85,-1.25 -4.05,-5.25 -1.45,-7.65 h -20.8 q -4.4,0 -7.4,1.9 z" />
        <path
           style="fill:#98a9aa;stroke:none"
           inkscape:connector-curvature="0"
           id="path11990"
           d="m 1229.85,547.55 q 0,-0.05 0.1,-0.1 0.1,-0.15 0.05,-0.25 l -0.7,-2.5 q -0.05,-0.15 -0.2,-0.2 -0.2,-0.05 -0.5,-0.05 -1.25,0.1 -2.45,0.3 -2.45,0.4 -4.85,1.25 -0.2,0.05 -0.35,0.15 -0.15,0.15 -0.2,0.25 -0.45,1.05 -0.45,1.95 -0.05,0.85 0.25,1.6 0.05,0.15 0.1,0.3 0.5,0.95 1.6,1.7 0.15,0.1 0.55,0.1 0.25,0 0.6,-0.15 1.45,-0.65 2.7,-1.4 0.45,-0.3 0.85,-0.55 0.1,-0.05 0.2,-0.1 1.45,-1.1 2.7,-2.3 m 4,-4.65 q -0.15,0.75 0.25,1.45 0.5,0.7 1.2,0.8 0.8,0.15 1.4,-0.35 0.75,-0.45 0.9,-1.2 0.15,-0.65 -0.4,-1.35 -0.4,-0.7 -1.2,-0.9 -0.7,-0.1 -1.4,0.4 -0.65,0.5 -0.75,1.15 m -32.3,-9.85 Q 1189.9,535 1189,544 q 0.05,1.45 0.45,2.75 2.15,5.25 11.85,6.7 h 3.55 q 4.75,-0.7 5.3,-3.5 h -6.25 q -4.4,0 -7.4,-1.9 -3,-1.9 -3,-4.5 0,-2.65 3,-4.55 3,-1.9 7.4,-1.9 h 20.8 4.65 q -0.45,-0.55 -1,-1 -3.1,-3.05 -7.45,-3.05 z" />
        <path
           style="fill:#b5cacb;stroke:none"
           inkscape:connector-curvature="0"
           id="path11992"
           d="m 1230.7,537.1 h -1.35 -4.65 q -2.6,2.4 1.45,7.65 1.2,-0.2 2.45,-0.3 0.3,0 0.5,0.05 0.15,0.05 0.2,0.2 l 0.7,2.5 q 0.05,0.1 -0.05,0.25 -0.1,0.05 -0.1,0.1 -1.25,1.2 -2.7,2.3 v 0.1 h 3.55 q 5.15,0 8.7,-1.9 3.8,-1.9 3.8,-4.5 0,-2.65 -3.8,-4.55 -3.55,-1.9 -8.7,-1.9 m 3.4,7.25 q -0.4,-0.7 -0.25,-1.45 0.1,-0.65 0.75,-1.15 0.7,-0.5 1.4,-0.4 0.8,0.2 1.2,0.9 0.55,0.7 0.4,1.35 -0.15,0.75 -0.9,1.2 -0.6,0.5 -1.4,0.35 -0.7,-0.1 -1.2,-0.8 z" />
      </g>
    </g>
  </g>
</svg>
