<?xml version="1.0" encoding="UTF-8" standalone="no"?>
<!-- Created with Inkscape (http://www.inkscape.org/) -->

<svg
   xmlns:dc="http://purl.org/dc/elements/1.1/"
   xmlns:cc="http://creativecommons.org/ns#"
   xmlns:rdf="http://www.w3.org/1999/02/22-rdf-syntax-ns#"
   xmlns:svg="http://www.w3.org/2000/svg"
   xmlns="http://www.w3.org/2000/svg"
   xmlns:sodipodi="http://sodipodi.sourceforge.net/DTD/sodipodi-0.dtd"
   xmlns:inkscape="http://www.inkscape.org/namespaces/inkscape"
   width="11.641666mm"
   height="11.641666mm"
   viewBox="0 0 11.641666 11.641666"
   version="1.1"
   id="svg7505"
   inkscape:version="0.92.1 r15371"
   sodipodi:docname="ball-grey.svg">
  <defs
     id="defs7499" />
  <sodipodi:namedview
     id="base"
     pagecolor="#ffffff"
     bordercolor="#666666"
     borderopacity="1.0"
     inkscape:pageopacity="0.0"
     inkscape:pageshadow="2"
     inkscape:zoom="0.35"
     inkscape:cx="-398.00001"
     inkscape:cy="-95.142839"
     inkscape:document-units="mm"
     inkscape:current-layer="layer1"
     showgrid="false"
     fit-margin-top="0"
     fit-margin-left="0"
     fit-margin-right="0"
     fit-margin-bottom="0" />
  <metadata
     id="metadata7502">
    <rdf:RDF>
      <cc:Work
         rdf:about="">
        <dc:format>image/svg+xml</dc:format>
        <dc:type
           rdf:resource="http://purl.org/dc/dcmitype/StillImage" />
        <dc:title></dc:title>
      </cc:Work>
    </rdf:RDF>
  </metadata>
  <g
     inkscape:label="Layer 1"
     inkscape:groupmode="layer"
     id="layer1"
     transform="translate(11.112496,-112.01846)">
    <g
       transform="matrix(0.52916666,0,0,0.52916666,-115.33187,-107.05654)"
       id="g7484">
      <path
         style="fill:#f7f7f7;stroke-linecap:round;stroke-linejoin:round"
         inkscape:connector-curvature="0"
         id="path506"
         d="m 213.3,419.7 c 0.5,0.5 0.75,1.10002 0.75,1.8 0,0.69998 -0.25,1.28333 -0.75,1.75 -0.46666,0.5 -1.04998,0.75 -1.75,0.75 -0.66667,0 -1.25,-0.25 -1.75,-0.75 -0.5,-0.46667 -0.75,-1.05002 -0.75,-1.75 0,-0.69998 0.25,-1.3 0.75,-1.8 0.5,-0.46666 1.08333,-0.7 1.75,-0.7 0.7,0 1.28333,0.23334 1.75,0.7 z" />
      <path
         style="fill:#eaeaea;stroke-linecap:round;stroke-linejoin:round"
         inkscape:connector-curvature="0"
         id="path508"
         d="m 214.05,421.5 c 0,-0.69998 -0.25,-1.3 -0.75,-1.8 -0.46666,-0.46666 -1.04998,-0.7 -1.75,-0.7 -0.66667,0 -1.25,0.23334 -1.75,0.7 -0.5,0.5 -0.75,1.10002 -0.75,1.8 0,0.69998 0.25,1.28333 0.75,1.75 0.5,0.5 1.08333,0.75 1.75,0.75 0.7,0 1.28333,-0.25 1.75,-0.75 0.5,-0.46667 0.75,-1.05002 0.75,-1.75 z m -7.65,-5.35 1.55,-0.1 1.6,0.1 c 1.8,0.26666 3.38333,1.08334 4.75,2.45 1.23333,1.23334 2.03333,2.65 2.4,4.25 -0.36667,0.93333 -1.16667,1.76667 -2.4,2.5 -1.73333,1.1 -3.85,1.65 -6.35,1.65 -2.5,0 -4.63333,-0.55 -6.4,-1.65 -1.2,-0.73333 -1.98333,-1.56667 -2.35,-2.5 0.36667,-1.6 1.15,-3.01666 2.35,-4.25 1.36667,-1.36666 2.98334,-2.18334 4.85,-2.45 z" />
      <path
         style="fill:#d9d9d9;stroke-linecap:round;stroke-linejoin:round"
         inkscape:connector-curvature="0"
         id="path510"
         d="m 199.2,422.85 c 0.36667,0.93333 1.15,1.76667 2.35,2.5 1.76667,1.1 3.9,1.65 6.4,1.65 2.5,0 4.61667,-0.55 6.35,-1.65 1.23333,-0.73333 2.03333,-1.56667 2.4,-2.5 l 0.25,2.15 c 0,2.5 -0.88333,4.61667 -2.65,6.35 -1.73333,1.76667 -3.85,2.65 -6.35,2.65 -2.5,0 -4.63333,-0.88333 -6.4,-2.65 -1.73333,-1.73333 -2.6,-3.85 -2.6,-6.35 0,-0.76666 0.0833,-1.48334 0.25,-2.15 z" />
      <path
         style="fill:#959595;stroke-linecap:round;stroke-linejoin:round"
         inkscape:connector-curvature="0"
         id="path512"
         d="m 209.55,416.15 -1.6,-0.15 -1.55,0.15 c -1.86666,0.26666 -3.48333,1.08334 -4.85,2.45 -1.2,1.23334 -1.98333,2.65 -2.35,4.25 -0.16667,0.66666 -0.25,1.38334 -0.25,2.15 0,2.5 0.86667,4.61667 2.6,6.35 1.76667,1.76667 3.9,2.65 6.4,2.65 2.5,0 4.61667,-0.88333 6.35,-2.65 1.76667,-1.73333 2.65,-3.85 2.65,-6.35 l -0.25,-2.15 c -0.36667,-1.6 -1.16667,-3.01666 -2.4,-4.25 -1.36667,-1.36666 -2.95,-2.18334 -4.75,-2.45 z m -9.4,1.05 c 2.16667,-2.13332 4.76667,-3.2 7.8,-3.2 3.06666,0 5.66667,1.06668 7.8,3.2 2.13333,2.13334 3.2,4.73335 3.2,7.8 0,3.03333 -1.06667,5.61667 -3.2,7.75 -2.16667,2.16666 -4.76668,3.25 -7.8,3.25 -3.06667,0 -5.66667,-1.06668 -7.8,-3.2 -2.13334,-2.13334 -3.2,-4.73335 -3.2,-7.8 0,-3.03333 1.06666,-5.63333 3.2,-7.8 z m 15.6,15.55 -0.05,0.05 z" />
    </g>
  </g>
</svg>
