<?xml version="1.0" encoding="UTF-8" standalone="no"?>
<!-- Created with Inkscape (http://www.inkscape.org/) -->

<svg
   xmlns:dc="http://purl.org/dc/elements/1.1/"
   xmlns:cc="http://creativecommons.org/ns#"
   xmlns:rdf="http://www.w3.org/1999/02/22-rdf-syntax-ns#"
   xmlns:svg="http://www.w3.org/2000/svg"
   xmlns="http://www.w3.org/2000/svg"
   xmlns:sodipodi="http://sodipodi.sourceforge.net/DTD/sodipodi-0.dtd"
   xmlns:inkscape="http://www.inkscape.org/namespaces/inkscape"
   width="33.866665mm"
   height="16.933332mm"
   viewBox="0 0 33.866665 16.933332"
   version="1.1"
   id="svg9996"
   inkscape:version="0.92.1 r15371"
   sodipodi:docname="block-yellow.svg">
  <defs
     id="defs9990">
    <linearGradient
       id="Grad6"
       gradientUnits="userSpaceOnUse"
       gradientTransform="matrix(0,0.0057167,-0.00573285,0,60.476193,-25.493066)"
       x1="-819.20001"
       y1="0"
       x2="819.20001"
       y2="0">
      <stop
         offset="0.0"
         stop-color="#FFFFFF"
         stop-opacity="0.0"
         id="stop27" />
      <stop
         offset="1.0"
         stop-color="#FFFFFF"
         stop-opacity="0.2"
         id="stop29" />
    </linearGradient>
  </defs>
  <sodipodi:namedview
     id="base"
     pagecolor="#ffffff"
     bordercolor="#666666"
     borderopacity="1.0"
     inkscape:pageopacity="0.0"
     inkscape:pageshadow="2"
     inkscape:zoom="2.8"
     inkscape:cx="159.51162"
     inkscape:cy="15.675788"
     inkscape:document-units="mm"
     inkscape:current-layer="layer1"
     showgrid="false"
     fit-margin-top="0"
     fit-margin-left="0"
     fit-margin-right="0"
     fit-margin-bottom="0" />
  <metadata
     id="metadata9993">
    <rdf:RDF>
      <cc:Work
         rdf:about="">
        <dc:format>image/svg+xml</dc:format>
        <dc:type
           rdf:resource="http://purl.org/dc/dcmitype/StillImage" />
        <dc:title></dc:title>
      </cc:Work>
    </rdf:RDF>
  </metadata>
  <g
     inkscape:label="Layer 1"
     inkscape:groupmode="layer"
     id="layer1"
     transform="translate(-43.54286,31.234524)">
    <g
       id="g10660">
      <path
         style="fill:#a78503;stroke-width:0.52916664;stroke-linecap:round;stroke-linejoin:round"
         inkscape:connector-curvature="0"
         id="path316"
         d="m 77.118485,-30.917024 c 0.194019,0.194024 0.291041,0.440965 0.291041,0.740833 v 14.816666 c 0,0.299863 -0.09702,0.555625 -0.291041,0.767292 -0.211667,0.19403 -0.46744,0.291042 -0.767292,0.291042 h -31.75 c -0.299868,0 -0.546819,-0.09701 -0.740833,-0.291042 -0.211667,-0.211667 -0.3175,-0.467429 -0.3175,-0.767292 v -14.816666 c 0,-0.299863 0.105833,-0.546804 0.3175,-0.740833 0.19403,-0.211667 0.440981,-0.3175 0.740833,-0.3175 h 31.75 c 0.299852,0 0.555625,0.105833 0.767292,0.3175 z m -0.767292,15.557499 v -14.816666 h -31.75 v 14.816666 z" />
      <path
         id="path10651"
         d="m 76.351193,-30.176191 v 14.816666 l -3.175,-3.175 v -8.466666 z"
         style="fill:#e3b602;stroke-width:0.52916664;stroke-linecap:round;stroke-linejoin:round" />
      <path
         id="path318"
         d="m 44.601193,-15.359525 v -14.816666 l 3.175,3.175 v 8.466666 z"
         style="fill:#e3b602;stroke-width:0.52916664;stroke-linecap:round;stroke-linejoin:round" />
      <path
         style="fill:#fedb4e;stroke-width:0.52916664;stroke-linecap:round;stroke-linejoin:round"
         inkscape:connector-curvature="0"
         id="path320"
         d="m 76.351193,-30.176191 -3.175,3.175 h -25.4 l -3.175,-3.175 z" />
      <path
         style="fill:#ffcc00;stroke-width:0.52916664;stroke-linecap:round;stroke-linejoin:round"
         inkscape:connector-curvature="0"
         id="path322"
         d="m 73.176193,-27.001191 v 8.466666 h -25.4 v -8.466666 z" />
      <path
         style="fill:#caa202;stroke-width:0.52916664;stroke-linecap:round;stroke-linejoin:round"
         inkscape:connector-curvature="0"
         id="path324"
         d="m 73.176193,-18.534525 3.175,3.175 h -31.75 l 3.175,-3.175 z" />
      <path
         id="path326"
         d="m 44.601193,-30.176191 h 31.75 v 9.392708 l -3.175,-1.984375 h -25.4 l -3.175,1.984375 z"
         style="fill:url(#Grad6);stroke-width:0.52916664;stroke-linecap:round;stroke-linejoin:round" />
    </g>
  </g>
</svg>
