<?xml version="1.0" encoding="UTF-8" standalone="no"?>
<!-- Created with Inkscape (http://www.inkscape.org/) -->

<svg
   xmlns:dc="http://purl.org/dc/elements/1.1/"
   xmlns:cc="http://creativecommons.org/ns#"
   xmlns:rdf="http://www.w3.org/1999/02/22-rdf-syntax-ns#"
   xmlns:svg="http://www.w3.org/2000/svg"
   xmlns="http://www.w3.org/2000/svg"
   xmlns:sodipodi="http://sodipodi.sourceforge.net/DTD/sodipodi-0.dtd"
   xmlns:inkscape="http://www.inkscape.org/namespaces/inkscape"
   width="12.7mm"
   height="55.033333mm"
   viewBox="0 0 12.7 55.033334"
   version="1.1"
   id="svg6139"
   inkscape:version="0.92.1 r15371"
   sodipodi:docname="paddle-v-blue.svg">
  <defs
     id="defs6133" />
  <sodipodi:namedview
     id="base"
     pagecolor="#ffffff"
     bordercolor="#666666"
     borderopacity="1.0"
     inkscape:pageopacity="0.0"
     inkscape:pageshadow="2"
     inkscape:zoom="1.979899"
     inkscape:cx="28.364942"
     inkscape:cy="55.196544"
     inkscape:document-units="mm"
     inkscape:current-layer="layer1"
     showgrid="false"
     fit-margin-top="0"
     fit-margin-left="0"
     fit-margin-right="0"
     fit-margin-bottom="0" />
  <metadata
     id="metadata6136">
    <rdf:RDF>
      <cc:Work
         rdf:about="">
        <dc:format>image/svg+xml</dc:format>
        <dc:type
           rdf:resource="http://purl.org/dc/dcmitype/StillImage" />
        <dc:title></dc:title>
      </cc:Work>
    </rdf:RDF>
  </metadata>
  <g
     inkscape:label="Layer 1"
     inkscape:groupmode="layer"
     id="layer1"
     transform="translate(109.15952,-119.80476)">
    <g
       id="g7464"
       transform="rotate(90,-102.80952,147.32143)">
      <path
         id="path7442"
         d="m -118.7639,142.02976 v -1.05833 h 31.908752 v 1.05833 z"
         style="fill:#aaaaaa;stroke-width:0.52916664;stroke-linecap:round;stroke-linejoin:round"
         inkscape:connector-curvature="0" />
      <path
         id="path494"
         d="m -118.7639,153.67143 v -1.05834 h 31.908752 v 1.05834 z"
         style="fill:#aaaaaa;stroke-width:0.52916664;stroke-linecap:round;stroke-linejoin:round"
         inkscape:connector-curvature="0" />
      <path
         id="path7438"
         d="m -118.7639,140.97143 v 1.05833 h -4.1275 -1.16416 c -1.44639,0 -2.68112,0.51153 -3.70417,1.53459 l -0.13229,0.15875 c -0.91722,1.00541 -1.37584,2.20486 -1.37584,3.59833 0,1.46402 0.50271,2.70757 1.50813,3.73062 1.02305,1.04069 2.25778,1.56104 3.70417,1.56104 h 3.96875 1.32291 v 1.05834 h -5.29166 c -1.74625,0 -3.22792,-0.62618 -4.445,-1.87854 -1.21709,-1.23472 -1.82563,-2.72521 -1.82563,-4.47146 0,-1.65806 0.5468,-3.08681 1.64042,-4.28625 l 0.15875,-0.21167 c 0.67027,-0.67027 1.4111,-1.15534 2.2225,-1.45521 0.68791,-0.26458 1.43756,-0.39687 2.24896,-0.39687 z"
         style="fill:#107dab;stroke-width:0.52916664;stroke-linecap:round;stroke-linejoin:round"
         inkscape:connector-curvature="0" />
      <path
         id="path7436"
         d="m -128.52702,142.82351 h 0.0265 z"
         style="fill:#107dab;stroke-width:0.52916664;stroke-linecap:round;stroke-linejoin:round"
         inkscape:connector-curvature="0" />
      <path
         id="path7434"
         d="m -86.855148,142.02976 v -1.05833 h 5.291666 c 0.811398,0 1.561063,0.13229 2.248959,0.39687 0.811397,0.29987 1.543393,0.78494 2.196041,1.45521 l 0.185208,0.21167 c 1.093629,1.19944 1.640417,2.62819 1.640417,4.28625 0,1.74626 -0.608542,3.23675 -1.825625,4.47146 -1.217083,1.25236 -2.69875,1.87854 -4.445,1.87854 h -5.291666 v -1.05834 h 1.322916 3.96875 c 1.446403,0 2.681129,-0.52035 3.704167,-1.56104 1.005416,-1.02305 1.508125,-2.2666 1.508125,-3.73062 0,-1.39347 -0.458597,-2.59292 -1.375834,-3.59833 l -0.132291,-0.15875 c -1.023038,-1.02306 -2.257764,-1.53459 -3.704167,-1.53459 h -1.164166 z"
         style="fill:#107dab;stroke-width:0.52916664;stroke-linecap:round;stroke-linejoin:round"
         inkscape:connector-curvature="0" />
      <path
         id="path496"
         d="m -77.118482,142.82351 h 0.02646 z"
         style="fill:#107dab;stroke-width:0.52916664;stroke-linecap:round;stroke-linejoin:round"
         inkscape:connector-curvature="0" />
      <path
         id="path7446"
         d="m -118.7639,152.61309 h -1.32291 l -1.50813,-5.29166 h -6.35 c 0,-1.39347 0.45861,-2.59292 1.37583,-3.59833 l 0.1323,-0.15875 c 0.98777,-0.98778 2.16958,-1.49932 3.54541,-1.53459 h 4.1275 l -1.50812,5.29167 z"
         style="fill:#4abff0;stroke-width:0.52916664;stroke-linecap:round;stroke-linejoin:round"
         inkscape:connector-curvature="0" />
      <path
         id="path498"
         d="m -85.347023,147.32143 -1.508125,-5.29167 h 4.1275 c 1.375833,0.0353 2.557621,0.54682 3.545416,1.53459 l 0.132292,0.15875 c 0.917236,1.00541 1.375833,2.20486 1.375833,3.59833 h -6.35 l -1.508125,5.29166 h -1.322916 z"
         style="fill:#4abff0;stroke-width:0.52916664;stroke-linecap:round;stroke-linejoin:round"
         inkscape:connector-curvature="0" />
      <path
         id="path7450"
         d="m -120.08681,152.61309 h -3.96875 c -1.44639,0 -2.68112,-0.52035 -3.70417,-1.56104 -1.00542,-1.02305 -1.50813,-2.2666 -1.50813,-3.73062 0,-1.39347 0.45862,-2.59292 1.37584,-3.59833 l 0.13229,-0.15875 c 1.02305,-1.02306 2.25778,-1.53459 3.70417,-1.53459 h 1.16416 c -1.37584,0.0353 -2.55765,0.54682 -3.54541,1.53459 l -0.1323,0.15875 c -0.91722,1.00541 -1.37583,2.20486 -1.37583,3.59833 h 6.35 z"
         style="fill:#14a5e2;stroke-width:0.52916664;stroke-linecap:round;stroke-linejoin:round"
         inkscape:connector-curvature="0" />
      <path
         id="path500"
         d="m -82.727648,142.02976 h 1.164166 c 1.446403,0 2.681129,0.51153 3.704167,1.53459 l 0.132291,0.15875 c 0.917237,1.00541 1.375834,2.20486 1.375834,3.59833 0,1.46402 -0.502709,2.70757 -1.508125,3.73062 -1.023038,1.04069 -2.257764,1.56104 -3.704167,1.56104 h -3.96875 l 1.508125,-5.29166 h 6.35 c 0,-1.39347 -0.458597,-2.59292 -1.375833,-3.59833 l -0.132292,-0.15875 c -0.987795,-0.98778 -2.169583,-1.49932 -3.545416,-1.53459 z"
         style="fill:#14a5e2;stroke-width:0.52916664;stroke-linecap:round;stroke-linejoin:round"
         inkscape:connector-curvature="0" />
      <path
         style="fill:#d9d9d9;stroke-width:0.52916664;stroke-linecap:round;stroke-linejoin:round"
         inkscape:connector-curvature="0"
         id="path502"
         d="m -118.7639,142.02976 h 31.908752 l 1.508125,5.29167 h -34.924997 z" />
      <path
         style="fill:#d0d0d0;stroke-width:0.52916664;stroke-linecap:round;stroke-linejoin:round"
         inkscape:connector-curvature="0"
         id="path504"
         d="m -120.27202,147.32143 h 34.924997 l -1.508125,5.29166 H -118.7639 Z" />
    </g>
  </g>
</svg>
