<?xml version="1.0" encoding="UTF-8" standalone="no"?>
<!-- Created with Inkscape (http://www.inkscape.org/) -->

<svg
   xmlns:dc="http://purl.org/dc/elements/1.1/"
   xmlns:cc="http://creativecommons.org/ns#"
   xmlns:rdf="http://www.w3.org/1999/02/22-rdf-syntax-ns#"
   xmlns:svg="http://www.w3.org/2000/svg"
   xmlns="http://www.w3.org/2000/svg"
   xmlns:sodipodi="http://sodipodi.sourceforge.net/DTD/sodipodi-0.dtd"
   xmlns:inkscape="http://www.inkscape.org/namespaces/inkscape"
   width="47.378857mm"
   height="62.568314mm"
   viewBox="0 0 47.378858 62.568312"
   version="1.1"
   id="svg8524"
   sodipodi:docname="ship-1-red.svg"
   inkscape:version="0.92.1 r15371">
  <defs
     id="defs8518" />
  <sodipodi:namedview
     id="base"
     pagecolor="#ffffff"
     bordercolor="#666666"
     borderopacity="1.0"
     inkscape:pageopacity="0.0"
     inkscape:pageshadow="2"
     inkscape:zoom="2.8"
     inkscape:cx="81.591121"
     inkscape:cy="122.28429"
     inkscape:document-units="mm"
     inkscape:current-layer="layer1"
     showgrid="false"
     fit-margin-top="0"
     fit-margin-left="0"
     fit-margin-right="0"
     fit-margin-bottom="0" />
  <metadata
     id="metadata8521">
    <rdf:RDF>
      <cc:Work
         rdf:about="">
        <dc:format>image/svg+xml</dc:format>
        <dc:type
           rdf:resource="http://purl.org/dc/dcmitype/StillImage" />
        <dc:title></dc:title>
      </cc:Work>
    </rdf:RDF>
  </metadata>
  <g
     inkscape:label="Layer 1"
     inkscape:groupmode="layer"
     id="layer1"
     transform="translate(-45.691138,-3.3531211)">
    <g
       id="g9131"
       transform="matrix(0,2.3891882,-2.3891882,0,195.59512,-164.03503)">
      <path
         d="m 80.506096,50.016181 0.93927,-6.574896 h 3.42635 l 0.93927,6.574896 0.60854,4.259791 v 5.251979 l -1.65364,2.685521 h -0.46302 l 1.3626,-2.248958 v -5.688542 l -1.03187,-9.908646 h -2.96334 l -1.03187,9.908646 v 5.688542 l 1.37583,2.248958 h -0.46302 l -1.66688,-2.685521 v -5.251979 l 0.62178,-4.259791"
         id="path448"
         inkscape:connector-curvature="0"
         style="fill:#f2f2f2;stroke:none;stroke-width:0.26458332" />
      <path
         d="m 80.506096,50.016181 -0.47625,-0.33073 0.89958,-6.310312 q 0.0265,-0.198438 0.17198,-0.330729 0.14552,-0.132292 0.34396,-0.132292 h 3.42635 q 0.19844,0 0.34396,0.132292 0.14552,0.132291 0.18521,0.330729 l 0.89958,6.310312 -0.48948,0.33073 -0.93927,-6.574896 h -3.42635 l -0.93927,6.574896 m 6.24416,10.001249 -1.53458,2.473855 -0.18521,0.185208 -0.26458,0.06615 h -0.46302 v -0.529167 h 0.46302 l 1.65364,-2.685521 0.33073,0.489479 m -4.63021,2.725209 h -0.56885 l -0.25135,-0.06615 -0.19844,-0.185208 -1.53459,-2.473855 0.3175,-0.489479 1.66688,2.685521 h 0.46302 0.10583 v 0.529167"
         id="path450"
         inkscape:connector-curvature="0"
         style="fill:#cbcbcb;stroke:none;stroke-width:0.26458332" />
      <path
         d="m 82.014216,62.213472 -1.37583,-2.248958 v -5.688542 l 1.03187,-9.908646 h 2.96334 l 1.03187,9.908646 v 5.688542 l -1.3626,2.248958 h -2.18282 -0.10583 m 3.09563,-10.080625 -0.0397,-0.370416 h -3.82323 l -0.0397,0.370416 -0.26459,2.143125 h 4.41855 l -0.25135,-2.143125 m 9.2075,0.978959 0.79375,-1.42875 h 0.60854 l -0.80698,7.183437 -0.59531,-1.309688 v -4.445 m -22.33084,0 v 4.445 l -0.59531,1.309688 -0.80698,-7.183437 h 0.59531 l 0.80698,1.428749"
         id="path452"
         inkscape:connector-curvature="0"
         style="fill:#ac3939;stroke:none;stroke-width:0.26458332" />
      <path
         d="m 71.986506,53.111805 0.38365,-0.396874 1.25677,0.595312 6.40292,-3.624792 0.47625,0.33073 -1.09803,0.635 -5.75468,3.254374 -1.66688,-0.79375 m 14.31396,-3.426354 6.37646,3.624792 q 0.635,-0.291042 1.25677,-0.595312 l 0.38365,0.396874 -1.66688,0.79375 -5.74146,-3.254374 -1.09802,-0.635 0.48948,-0.33073 m 7.76552,8.585729 -1.17739,0.568855 -0.1323,0.05292 -0.66145,0.119063 v -0.5424 l 0.55562,-0.105833 1.66688,-0.80698 -0.25136,0.714375 m -6.64104,1.613959 -0.67469,0.132291 -0.33073,-0.489479 1.00542,-0.185208 v 0.542396 m -7.85813,0.132291 -0.67468,-0.132291 v -0.542396 l 0.99218,0.185208 -0.3175,0.489479 m -5.37104,-1.005416 -0.635,-0.119063 -0.13229,-0.05292 -1.17739,-0.568855 -0.26459,-0.714375 1.66688,0.80698 0.54239,0.105833 v 0.542396"
         id="path454"
         inkscape:connector-curvature="0"
         style="fill:#8ea8ad;stroke:none;stroke-width:0.26458332" />
      <path
         d="m 86.419526,59.527951 v -5.251979 l -0.60854,-4.259791 1.09802,0.635 0.51594,3.624791 v 3.386667 0.264583 1.415521 l -1.00542,0.185208 m -7.01146,-8.87677 1.09803,-0.635 -0.62178,4.259791 v 5.251979 l -0.99218,-0.185208 v -1.415521 -0.264583 -3.386667 l 0.51593,-3.624791"
         id="path456"
         inkscape:connector-curvature="0"
         style="fill:#bdd6db;stroke:none;stroke-width:0.26458332" />
      <path
         d="m 79.408066,50.651181 -0.51593,3.624791 v 3.386667 l -4.69636,-0.859896 v 0.251354 1.415521 l -0.54239,-0.105833 v -4.45823 l 5.75468,-3.254374 m 7.50094,0 5.74146,3.254374 v 4.45823 l -0.55562,0.105833 v -1.415521 -0.251354 l -4.6699,0.859896 v -3.386667 l -0.51594,-3.624791"
         id="path458"
         inkscape:connector-curvature="0"
         style="fill:#d3e1e7;stroke:none;stroke-width:0.26458332" />
      <path
         d="m 92.650466,53.905555 1.66688,-0.79375 v 4.445 l -1.66688,0.80698 v -4.45823 m -18.99708,0 v 4.45823 l -1.66688,-0.80698 v -4.445 l 1.66688,0.79375 m 0.54239,3.148542 v -0.251354 l 4.69636,0.859896 v 0.264583 l -1.1774,-0.224896 -1.16417,-0.211666 -1.17739,-0.224896 -1.1774,-0.211667 m 13.22917,0.873125 v -0.264583 l 4.6699,-0.859896 v 0.251354 l -1.16417,0.211667 -1.16417,0.224896 -1.17739,0.211666 -1.16417,0.224896"
         id="path460"
         inkscape:connector-curvature="0"
         style="fill:#b9ced7;stroke:none;stroke-width:0.26458332" />
      <path
         d="m 81.207236,52.132847 0.0397,-0.370416 h 3.82323 l 0.0397,0.370416 h -3.9026"
         id="path462"
         inkscape:connector-curvature="0"
         style="fill:#c44d4d;stroke:none;stroke-width:0.26458332" />
      <path
         d="m 81.207236,52.132847 h 3.90261 l 0.25135,2.143125 h -4.41854 l 0.26458,-2.143125"
         id="path464"
         inkscape:connector-curvature="0"
         style="fill:#4a3c55;stroke:none;stroke-width:0.26458332" />
      <path
         d="m 93.933696,52.714931 0.71437,-1.28323 q 0.0661,-0.132291 0.19844,-0.198437 l 0.26459,-0.07937 h 0.60854 q 0.14552,0 0.27781,0.07937 l 0.19844,0.224896 0.0529,0.291041 -0.80698,7.183438 q -0.0265,0.171979 -0.14552,0.304271 -0.11906,0.119062 -0.29104,0.15875 l -0.34396,-0.06615 q -0.15875,-0.07937 -0.2249,-0.238125 l -0.37041,-0.820209 0.25135,-0.714375 0.59531,1.309688 0.80698,-7.183437 h -0.60854 l -0.79375,1.428753 -0.38365,-0.396874 m -9.63083,10.027708 h -2.18282 v -0.529167 h 2.18282 v 0.529167 m -12.05177,-4.471459 -0.37042,0.820209 -0.23813,0.238125 -0.33073,0.06615 -0.30427,-0.15875 q -0.11906,-0.132292 -0.13229,-0.304271 l -0.80698,-7.183438 q -0.0265,-0.15875 0.0397,-0.291041 l 0.19844,-0.224896 q 0.13229,-0.07937 0.27781,-0.07937 h 0.59531 q 0.14552,0 0.26459,0.07937 l 0.19843,0.198437 0.72761,1.28323 -0.38365,0.396874 -0.80698,-1.428749 h -0.59531 l 0.80698,7.183437 0.59531,-1.309688 0.26459,0.714375"
         id="path466"
         inkscape:connector-curvature="0"
         style="fill:#802b2b;stroke:none;stroke-width:0.26458332" />
      <path
         d="m 74.195776,58.469618 v -1.415521 l 1.1774,0.211667 v 1.42875 l -1.1774,-0.224896 m 16.7349,-1.203854 1.16417,-0.211667 v 1.415521 l -1.16417,0.224896 v -1.42875 m -2.34156,0.436562 1.17739,-0.211666 v 1.41552 l -1.17739,0.211667 v -1.415521 m -12.03855,-0.211666 1.16417,0.211666 v 1.415521 l -1.16417,-0.211667 v -1.41552"
         id="path468"
         inkscape:connector-curvature="0"
         style="fill:#ecbd02;stroke:none;stroke-width:0.26458332" />
      <path
         d="m 76.550566,57.49066 v 1.41552 l -1.17739,-0.211666 v -1.42875 l 1.17739,0.224896 m 2.34157,0.436562 v 1.415521 l -1.1774,-0.224896 v -1.415521 l 1.1774,0.224896 m 10.87437,-0.436562 1.16417,-0.224896 v 1.42875 l -1.16417,0.211666 v -1.41552 m -2.34156,0.436562 1.16417,-0.224896 v 1.415521 l -1.16417,0.224896 v -1.415521"
         id="path470"
         inkscape:connector-curvature="0"
         style="fill:#ffcc00;stroke:none;stroke-width:0.26458332" />
      <path
         d="m 92.094846,59.012014 -4.6699,0.873125 v -0.542396 l 1.16417,-0.224896 1.17739,-0.211667 1.16417,-0.211666 1.16417,-0.224896 v 0.542396 m -13.20271,0.873125 -4.69636,-0.873125 v -0.542396 l 1.1774,0.224896 1.17739,0.211666 1.16417,0.211667 1.1774,0.224896 v 0.542396"
         id="path472"
         inkscape:connector-curvature="0"
         style="fill:#bf9900;stroke:none;stroke-width:0.26458332" />
    </g>
  </g>
</svg>
